%YAML 1.1
%TAG !u! tag:unity3d.com,2011:
--- !u!114 &11400000
MonoBehaviour:
  m_ObjectHideFlags: 0
  m_CorrespondingSourceObject: {fileID: 0}
  m_PrefabInstance: {fileID: 0}
  m_PrefabAsset: {fileID: 0}
  m_GameObject: {fileID: 0}
  m_Enabled: 1
  m_EditorHideFlags: 0
  m_Script: {fileID: 11500000, guid: d78d3821958bf6d48a4c35905d858373, type: 3}
  m_Name: 6x1 HALF
  m_EditorClassIdentifier: 
  fields:
  - {fileID: 11400000, guid: 8a0347d872b7547438d97389cc0e84ab, type: 2}
  - {fileID: 11400000, guid: 8a0347d872b7547438d97389cc0e84ab, type: 2}
  - {fileID: 11400000, guid: 6f483a3532008f444b37f13ca7cdc9de, type: 2}
  - {fileID: 11400000, guid: ab4225fd506a36a4496428836c04b7c4, type: 2}
  - {fileID: 11400000, guid: ab4225fd506a36a4496428836c04b7c4, type: 2}
  - {fileID: 11400000, guid: 8a0347d872b7547438d97389cc0e84ab, type: 2}
  x: 6
