%YAML 1.1
%TAG !u! tag:unity3d.com,2011:
--- !u!1001 &6537517074484146630
PrefabInstance:
  m_ObjectHideFlags: 0
  serializedVersion: 2
  m_Modification:
    m_TransformParent: {fileID: 0}
    m_Modifications:
    - target: {fileID: 2682588739948326934, guid: f1c3d86dce7973b41a02e9ae2dfe7cf8,
        type: 3}
      propertyPath: m_Name
      value: Cow
      objectReference: {fileID: 0}
    - target: {fileID: 2682588739948326935, guid: f1c3d86dce7973b41a02e9ae2dfe7cf8,
        type: 3}
      propertyPath: m_Pivot.x
      value: 0.5
      objectReference: {fileID: 0}
    - target: {fileID: 2682588739948326935, guid: f1c3d86dce7973b41a02e9ae2dfe7cf8,
        type: 3}
      propertyPath: m_Pivot.y
      value: 0.5
      objectReference: {fileID: 0}
    - target: {fileID: 2682588739948326935, guid: f1c3d86dce7973b41a02e9ae2dfe7cf8,
        type: 3}
      propertyPath: m_RootOrder
      value: 0
      objectReference: {fileID: 0}
    - target: {fileID: 2682588739948326935, guid: f1c3d86dce7973b41a02e9ae2dfe7cf8,
        type: 3}
      propertyPath: m_AnchorMax.x
      value: 0
      objectReference: {fileID: 0}
    - target: {fileID: 2682588739948326935, guid: f1c3d86dce7973b41a02e9ae2dfe7cf8,
        type: 3}
      propertyPath: m_AnchorMax.y
      value: 0
      objectReference: {fileID: 0}
    - target: {fileID: 2682588739948326935, guid: f1c3d86dce7973b41a02e9ae2dfe7cf8,
        type: 3}
      propertyPath: m_AnchorMin.x
      value: 0
      objectReference: {fileID: 0}
    - target: {fileID: 2682588739948326935, guid: f1c3d86dce7973b41a02e9ae2dfe7cf8,
        type: 3}
      propertyPath: m_AnchorMin.y
      value: 0
      objectReference: {fileID: 0}
    - target: {fileID: 2682588739948326935, guid: f1c3d86dce7973b41a02e9ae2dfe7cf8,
        type: 3}
      propertyPath: m_SizeDelta.x
      value: 150
      objectReference: {fileID: 0}
    - target: {fileID: 2682588739948326935, guid: f1c3d86dce7973b41a02e9ae2dfe7cf8,
        type: 3}
      propertyPath: m_SizeDelta.y
      value: 150
      objectReference: {fileID: 0}
    - target: {fileID: 2682588739948326935, guid: f1c3d86dce7973b41a02e9ae2dfe7cf8,
        type: 3}
      propertyPath: m_LocalPosition.x
      value: 0
      objectReference: {fileID: 0}
    - target: {fileID: 2682588739948326935, guid: f1c3d86dce7973b41a02e9ae2dfe7cf8,
        type: 3}
      propertyPath: m_LocalPosition.y
      value: 0
      objectReference: {fileID: 0}
    - target: {fileID: 2682588739948326935, guid: f1c3d86dce7973b41a02e9ae2dfe7cf8,
        type: 3}
      propertyPath: m_LocalPosition.z
      value: 0
      objectReference: {fileID: 0}
    - target: {fileID: 2682588739948326935, guid: f1c3d86dce7973b41a02e9ae2dfe7cf8,
        type: 3}
      propertyPath: m_LocalRotation.w
      value: 1
      objectReference: {fileID: 0}
    - target: {fileID: 2682588739948326935, guid: f1c3d86dce7973b41a02e9ae2dfe7cf8,
        type: 3}
      propertyPath: m_LocalRotation.x
      value: 0
      objectReference: {fileID: 0}
    - target: {fileID: 2682588739948326935, guid: f1c3d86dce7973b41a02e9ae2dfe7cf8,
        type: 3}
      propertyPath: m_LocalRotation.y
      value: 0
      objectReference: {fileID: 0}
    - target: {fileID: 2682588739948326935, guid: f1c3d86dce7973b41a02e9ae2dfe7cf8,
        type: 3}
      propertyPath: m_LocalRotation.z
      value: 0
      objectReference: {fileID: 0}
    - target: {fileID: 2682588739948326935, guid: f1c3d86dce7973b41a02e9ae2dfe7cf8,
        type: 3}
      propertyPath: m_AnchoredPosition.x
      value: 0
      objectReference: {fileID: 0}
    - target: {fileID: 2682588739948326935, guid: f1c3d86dce7973b41a02e9ae2dfe7cf8,
        type: 3}
      propertyPath: m_AnchoredPosition.y
      value: 0
      objectReference: {fileID: 0}
    - target: {fileID: 2682588739948326935, guid: f1c3d86dce7973b41a02e9ae2dfe7cf8,
        type: 3}
      propertyPath: m_LocalEulerAnglesHint.x
      value: 0
      objectReference: {fileID: 0}
    - target: {fileID: 2682588739948326935, guid: f1c3d86dce7973b41a02e9ae2dfe7cf8,
        type: 3}
      propertyPath: m_LocalEulerAnglesHint.y
      value: 0
      objectReference: {fileID: 0}
    - target: {fileID: 2682588739948326935, guid: f1c3d86dce7973b41a02e9ae2dfe7cf8,
        type: 3}
      propertyPath: m_LocalEulerAnglesHint.z
      value: 0
      objectReference: {fileID: 0}
    - target: {fileID: 4312806964788785273, guid: f1c3d86dce7973b41a02e9ae2dfe7cf8,
        type: 3}
      propertyPath: resourceItem
      value: 
      objectReference: {fileID: 11400000, guid: 3add7f4e6ed483c4b9395d375f61a0d8,
        type: 2}
    m_RemovedComponents: []
  m_SourcePrefab: {fileID: 100100000, guid: f1c3d86dce7973b41a02e9ae2dfe7cf8, type: 3}
